%!PS-Adobe-3.0 EPSF-3.0
%%Creator: Graphviz version 2.20.3 (Wed Oct  8 06:02:12 UTC 2008)
%%For: sagiv
%%Title: cfg
%%Pages: (atend)
%%BoundingBox: (atend)
%%EndComments
save
%%BeginProlog
/DotDict 200 dict def
DotDict begin

/setupLatin1 {
mark
/EncodingVector 256 array def
 EncodingVector 0

ISOLatin1Encoding 0 255 getinterval putinterval
EncodingVector 45 /hyphen put

% Set up ISO Latin 1 character encoding
/starnetISO {
        dup dup findfont dup length dict begin
        { 1 index /FID ne { def }{ pop pop } ifelse
        } forall
        /Encoding EncodingVector def
        currentdict end definefont
} def
/Times-Roman starnetISO def
/Times-Italic starnetISO def
/Times-Bold starnetISO def
/Times-BoldItalic starnetISO def
/Helvetica starnetISO def
/Helvetica-Oblique starnetISO def
/Helvetica-Bold starnetISO def
/Helvetica-BoldOblique starnetISO def
/Courier starnetISO def
/Courier-Oblique starnetISO def
/Courier-Bold starnetISO def
/Courier-BoldOblique starnetISO def
cleartomark
} bind def

%%BeginResource: procset graphviz 0 0
/coord-font-family /Times-Roman def
/default-font-family /Times-Roman def
/coordfont coord-font-family findfont 8 scalefont def

/InvScaleFactor 1.0 def
/set_scale {
       dup 1 exch div /InvScaleFactor exch def
       scale
} bind def

% styles
/solid { [] 0 setdash } bind def
/dashed { [9 InvScaleFactor mul dup ] 0 setdash } bind def
/dotted { [1 InvScaleFactor mul 6 InvScaleFactor mul] 0 setdash } bind def
/invis {/fill {newpath} def /stroke {newpath} def /show {pop newpath} def} bind def
/bold { 2 setlinewidth } bind def
/filled { } bind def
/unfilled { } bind def
/rounded { } bind def
/diagonals { } bind def

% hooks for setting color 
/nodecolor { sethsbcolor } bind def
/edgecolor { sethsbcolor } bind def
/graphcolor { sethsbcolor } bind def
/nopcolor {pop pop pop} bind def

/beginpage {	% i j npages
	/npages exch def
	/j exch def
	/i exch def
	/str 10 string def
	npages 1 gt {
		gsave
			coordfont setfont
			0 0 moveto
			(\() show i str cvs show (,) show j str cvs show (\)) show
		grestore
	} if
} bind def

/set_font {
	findfont exch
	scalefont setfont
} def

% draw text fitted to its expected width
/alignedtext {			% width text
	/text exch def
	/width exch def
	gsave
		width 0 gt {
			[] 0 setdash
			text stringwidth pop width exch sub text length div 0 text ashow
		} if
	grestore
} def

/boxprim {				% xcorner ycorner xsize ysize
		4 2 roll
		moveto
		2 copy
		exch 0 rlineto
		0 exch rlineto
		pop neg 0 rlineto
		closepath
} bind def

/ellipse_path {
	/ry exch def
	/rx exch def
	/y exch def
	/x exch def
	matrix currentmatrix
	newpath
	x y translate
	rx ry scale
	0 0 1 0 360 arc
	setmatrix
} bind def

/endpage { showpage } bind def
/showpage { } def

/layercolorseq
	[	% layer color sequence - darkest to lightest
		[0 0 0]
		[.2 .8 .8]
		[.4 .8 .8]
		[.6 .8 .8]
		[.8 .8 .8]
	]
def

/layerlen layercolorseq length def

/setlayer {/maxlayer exch def /curlayer exch def
	layercolorseq curlayer 1 sub layerlen mod get
	aload pop sethsbcolor
	/nodecolor {nopcolor} def
	/edgecolor {nopcolor} def
	/graphcolor {nopcolor} def
} bind def

/onlayer { curlayer ne {invis} if } def

/onlayers {
	/myupper exch def
	/mylower exch def
	curlayer mylower lt
	curlayer myupper gt
	or
	{invis} if
} def

/curlayer 0 def

%%EndResource
%%EndProlog
%%BeginSetup
14 default-font-family set_font
1 setmiterlimit
% /arrowlength 10 def
% /arrowwidth 5 def

% make sure pdfmark is harmless for PS-interpreters other than Distiller
/pdfmark where {pop} {userdict /pdfmark /cleartomark load put} ifelse
% make '<<' and '>>' safe on PS Level 1 devices
/languagelevel where {pop languagelevel}{1} ifelse
2 lt {
    userdict (<<) cvn ([) cvn load put
    userdict (>>) cvn ([) cvn load put
} if

%%EndSetup
setupLatin1
%%Page: 1 1
%%PageBoundingBox: 36 36 157 276
%%PageOrientation: Portrait
0 0 1 beginpage
gsave
36 36 121 240 boxprim clip newpath
1 1 set_scale 0 rotate 40 40 translate
% 1
gsave
1 setlinewidth
0.000 0.000 0.000 nodecolor
34 212 34.15 19.8 ellipse_path stroke
0.000 0.000 0.000 nodecolor
14 /Times-Roman set_font
17.5 209.4 moveto 33 (df=0) alignedtext
grestore
% 2
gsave
1 setlinewidth
0.000 0.000 0.000 nodecolor
34 116 34.15 19.8 ellipse_path stroke
0.000 0.000 0.000 nodecolor
14 /Times-Roman set_font
17.5 113.4 moveto 33 (df=3) alignedtext
grestore
% 1->2
gsave
1 setlinewidth
0.000 0.000 0.000 edgecolor
newpath 34 192 moveto
34 178 34 161 34 146 curveto
stroke
0.000 0.000 0.000 edgecolor
newpath 37.5 146 moveto
34 136 lineto
30.5 146 lineto
closepath fill
1 setlinewidth
solid
0.000 0.000 0.000 edgecolor
newpath 37.5 146 moveto
34 136 lineto
30.5 146 lineto
closepath stroke
0.000 0.000 0.000 edgecolor
14 /Times-Roman set_font
34 161.4 moveto 40 (x := 3) alignedtext
grestore
% 2->2
gsave
1 setlinewidth
0.000 0.000 0.000 edgecolor
newpath 65 125 moveto
76 125 86 122 86 116 curveto
86 112 81 109 75 108 curveto
stroke
0.000 0.000 0.000 edgecolor
newpath 75.3 104.51 moveto
65 107 lineto
74.6 111.48 lineto
closepath fill
1 setlinewidth
solid
0.000 0.000 0.000 edgecolor
newpath 75.3 104.51 moveto
65 107 lineto
74.6 111.48 lineto
closepath stroke
0.000 0.000 0.000 edgecolor
14 /Times-Roman set_font
85.5 113.4 moveto 27 (nop) alignedtext
grestore
% 3
gsave
1 setlinewidth
0.000 0.000 0.000 nodecolor
34 20 34.15 19.8 ellipse_path stroke
0.000 0.000 0.000 nodecolor
14 /Times-Roman set_font
17.5 17.4 moveto 33 (df=3) alignedtext
grestore
% 2->3
gsave
1 setlinewidth
0.000 0.000 0.000 edgecolor
newpath 34 96 moveto
34 82 34 65 34 50 curveto
stroke
0.000 0.000 0.000 edgecolor
newpath 37.5 50 moveto
34 40 lineto
30.5 50 lineto
closepath fill
1 setlinewidth
solid
0.000 0.000 0.000 edgecolor
newpath 37.5 50 moveto
34 40 lineto
30.5 50 lineto
closepath stroke
0.000 0.000 0.000 edgecolor
14 /Times-Roman set_font
33.5 65.4 moveto 27 (nop) alignedtext
grestore
endpage
showpage
grestore
%%PageTrailer
%%EndPage: 1
%%Trailer
%%Pages: 1
%%BoundingBox: 36 36 157 276
end
restore
%%EOF
